[
	[
		{
			"day" : 6,
			"hour" : 19,
			"visitors" : 1085
		},
		{
			"day" : 6,
			"hour" : 20,
			"visitors" : 2187
		},
		{
			"day" : 6,
			"hour" : 15,
			"visitors" : 66
		},
		{
			"day" : 6,
			"hour" : 13,
			"visitors" : 61
		},
		{
			"day" : 6,
			"hour" : 17,
			"visitors" : 41
		},
		{
			"day" : 6,
			"hour" : 18,
			"visitors" : 79
		},
		{
			"day" : 6,
			"hour" : 16,
			"visitors" : 36
		},
		{
			"day" : 6,
			"hour" : 12,
			"visitors" : 2
		}
	],
	[
		{
			"day" : 7,
			"hour" : 22,
			"visitors" : 1898
		},
		{
			"day" : 7,
			"hour" : 19,
			"visitors" : 1
		},
		{
			"day" : 7,
			"hour" : 20,
			"visitors" : 1654
		},
		{
			"day" : 7,
			"hour" : 9,
			"visitors" : 1
		},
		{
			"day" : 7,
			"hour" : 21,
			"visitors" : 1995
		},
		{
			"day" : 7,
			"hour" : 12,
			"visitors" : 2
		},
		{
			"day" : 7,
			"hour" : 23,
			"visitors" : 550
		},
		{
			"day" : 7,
			"hour" : 8,
			"visitors" : 1
		},
		{
			"day" : 7,
			"hour" : 13,
			"visitors" : 127
		},
		{
			"day" : 7,
			"hour" : 15,
			"visitors" : 55
		},
		{
			"day" : 7,
			"hour" : 17,
			"visitors" : 46
		},
		{
			"day" : 7,
			"hour" : 16,
			"visitors" : 81
		}
	],
	[
		{
			"day" : 8,
			"hour" : 13,
			"visitors" : 214
		},
		{
			"day" : 8,
			"hour" : 10,
			"visitors" : 1
		},
		{
			"day" : 8,
			"hour" : 17,
			"visitors" : 88
		},
		{
			"day" : 8,
			"hour" : 16,
			"visitors" : 115
		},
		{
			"day" : 8,
			"hour" : 12,
			"visitors" : 11
		},
		{
			"day" : 8,
			"hour" : 21,
			"visitors" : 2009
		},
		{
			"day" : 8,
			"hour" : 15,
			"visitors" : 45
		},
		{
			"day" : 8,
			"hour" : 22,
			"visitors" : 2216
		},
		{
			"day" : 8,
			"hour" : 19,
			"visitors" : 1
		},
		{
			"day" : 8,
			"hour" : 20,
			"visitors" : 2292
		},
		{
			"day" : 8,
			"hour" : 14,
			"visitors" : 2
		},
		{
			"day" : 8,
			"hour" : 23,
			"visitors" : 574
		},
		{
			"day" : 8,
			"hour" : 11,
			"visitors" : 1
		}
	]
]
