visitorid,"First Access"
1000708,8
1001032,8
1001533,8
100174,8
1001822,8
10019,8
1002597,8
1002951,8
1006895,9
1007202,8
1007694,8
1007980,8
1008236,8
1008448,8
10089,8
100951,8
1009525,8
1010543,8
1010817,8
1011112,8
1012604,8
1012664,8
1013602,8
1013683,8
1014505,9
1014656,8
1014820,8
101592,8
1016471,8
1016895,8
1017164,9
101816,8
1019356,8
1019609,8
1020418,8
1023008,8
1024085,8
1025484,8
1025781,8
1027078,8
1027276,8
1027483,8
1028085,8
1028556,8
1029542,8
1029556,8
1029726,8
1030195,8
1030805,8
1030897,8
1031649,8
1031660,8
1032029,8
1033337,8
103422,8
1034322,8
1034569,8
1034871,8
1035709,8
1035740,8
103653,8
10371,8
1038231,9
1039362,8
1039698,8
1039702,8
104006,8
1040142,8
104177,8
1042152,8
1042280,9
1045021,8
1045234,8
1045980,8
1046688,8
1046855,8
1047819,8
1048798,8
1049061,8
1049333,8
1050928,8
1051158,8
105151,8
1051684,8
1051722,8
105229,8
1052726,8
1053224,8
105331,8
1053453,8
1056187,8
105732,8
1057378,9
1058549,8
1058571,8
1058644,8
1058885,8
1059177,8
1059549,8
1059756,8
1060157,8
1060589,8
1061215,8
1061455,9
1061543,8
1061778,8
1062421,8
1062596,9
1063775,8
1065491,9
1065547,8
1066335,8
1066834,8
1067572,9
1067956,8
1069549,8
1070212,8
1071678,8
107173,8
1074829,8
1074970,8
1075202,8
1075446,8
1075494,8
1075706,8
1076477,8
1078699,8
1078803,8
1078914,8
1079396,8
1079812,8
10802,9
1080655,9
1080834,8
1080859,8
1080969,8
1081274,9
1081515,8
1081552,8
1081674,8
1081927,8
1082547,8
1082862,8
1083263,8
1083305,8
1083363,8
1083765,8
108423,8
1084500,8
1084813,8
1085383,8
108559,8
1085806,8
1086053,8
1086555,8
1086703,8
1086857,8
1087254,8
1087978,8
1088488,8
1088533,8
1088678,8
1089132,9
108944,8
1089790,8
1089957,8
1090219,8
1093081,8
1093721,9
1094296,8
109455,8
1094699,9
1095099,8
1095464,8
1095836,8
1098136,8
1098358,8
1099345,8
1099687,8
110075,8
1101250,8
1101472,8
1103365,8
1103520,8
1104264,8
11053,8
1105719,8
1106029,8
1106618,8
1106999,8
1107698,8
1107890,8
1108000,8
1108132,8
1108472,8
1108483,8
1109689,8
1111309,8
1111313,8
1114109,8
1115434,8
1115919,8
1116214,8
1116329,8
1116385,8
1117298,8
111758,8
1117699,8
1118070,8
1118450,8
1119013,9
1119337,8
1119534,8
111975,8
1120636,8
1121586,8
1122884,9
1124046,8
1125646,8
11269,8
1127216,9
1127288,9
1127694,9
1128427,8
1128580,8
1128912,8
1129455,8
1130496,8
11311,8
1131284,8
1131984,8
1132076,8
1132521,8
1132882,9
1133806,8
1133935,9
1134424,8
1134427,8
1134821,8
1135093,8
113536,8
1135770,8
1136377,8
1136675,8
1136963,8
1138286,8
1138406,8
1138420,8
1140347,8
1140789,8
1141064,9
1141551,8
1141828,8
1142213,8
1142347,8
1143639,8
1143856,8
1144228,8
114521,8
1145752,8
11459,8
1147101,8
1147212,8
1148243,8
1148414,8
1152153,8
1152233,8
1152246,8
1152260,8
115296,8
1154043,9
1154392,8
1154872,8
1155666,8
115573,8
1155829,8
1155879,8
1155936,8
1156155,8
115680,8
1156815,8
1156947,8
1157004,8
1158599,8
1158920,8
1159594,8
116009,8
1161488,8
1162853,8
1164505,8
1165018,8
1165425,8
1166845,8
1168221,8
1168815,8
1169631,8
1170077,8
1170377,9
117066,8
1171069,8
1171272,8
1171409,8
1172390,9
1173076,8
1173915,8
1174742,8
1174886,8
1174929,8
1175115,8
1176667,8
1176719,8
1176992,8
1177549,8
1178195,8
1178625,8
1180289,8
1180391,8
1180630,8
1180901,9
1180958,8
11810,9
1181215,8
1181497,8
1182208,8
1182572,8
1182901,8
1183890,8
1184365,8
1185012,8
1185685,8
1187061,9
1187497,8
1187902,8
1188103,8
1188816,8
1188959,8
1189602,8
1190398,8
1191435,8
1191555,8
1192794,8
119370,8
1194115,8
1194287,8
119477,8
1194932,8
1195226,8
1195307,8
1196253,8
1196426,8
1196605,8
1196711,8
1196999,8
1197119,8
1197255,8
119750,8
1197655,8
1197774,8
1197891,8
1197899,8
1198178,9
1198534,8
119934,8
1199860,8
1201079,8
1201175,8
1201599,8
1201815,8
1201916,8
1202675,8
1202957,8
1203064,8
1203802,8
120476,8
1205461,8
120607,8
1206646,8
1207462,8
1207988,8
1208008,8
1208151,8
1208350,8
1209234,8
1209628,8
1209830,8
1210500,8
121066,8
1210755,8
1212680,8
121295,8
1213563,8
1213994,8
1216041,8
1216465,9
1216773,8
1217112,8
121745,8
1217734,8
1217871,8
1218201,8
1218456,8
1219503,9
121980,8
1220077,8
1221432,8
1221753,8
1221993,8
1223224,9
1223310,8
1224245,8
1225393,8
1227574,8
122907,8
1229384,8
1229412,8
1229444,8
1229505,8
122952,8
1229660,8
1230079,8
1230148,8
1230993,8
1231028,8
1232939,8
1233136,8
123332,8
1233488,8
1233506,8
1233831,8
1234191,8
1234605,8
1234713,8
1234761,8
1235058,8
1235878,8
1236441,8
1236601,8
1236917,8
1237644,8
1237943,8
1238170,8
123962,8
1240527,8
1241160,8
1241516,8
1241725,8
1242167,8
1242773,8
1243186,8
1243677,8
1243914,8
124408,8
1244181,8
1245273,8
1245603,8
1246313,8
1246530,8
1246650,8
1246785,8
1247820,8
1248154,8
1248261,8
1248270,8
1249417,8
1250158,8
1250700,8
1250941,8
1251090,9
1252119,8
125285,8
1252903,8
125303,9
1253108,8
1254510,8
1255142,8
1255453,8
1257239,8
1257635,8
125781,8
1258137,8
1258290,8
1259987,8
1260667,9
1261486,8
126182,8
1262713,9
1263311,8
1264051,8
1264945,8
1265839,8
1267460,8
1267918,8
1267964,9
1268786,8
1269351,8
1269504,8
127037,8
1272536,8
1273322,8
127426,8
1274841,8
1275173,8
127569,9
1276624,8
1276675,8
1276986,8
1277248,8
1278658,8
1279087,8
1280655,8
1280718,8
1280922,8
1281941,8
1283210,8
1283332,8
1283386,8
1284357,8
1284436,9
128533,8
1286289,8
1286459,8
1286480,8
1287048,8
1287379,8
1288298,8
1288335,8
1288670,8
1288884,9
128920,8
1289734,8
1292929,8
1293978,8
1294321,8
129457,8
1295158,8
1295204,8
1295908,8
1296115,8
1297648,8
1297695,8
1297787,8
1297867,8
1297877,8
1297882,8
1298361,8
1299176,8
1300247,8
130142,8
1302430,8
1304658,9
1304803,8
13052,8
1305659,8
1305795,8
1306211,8
130741,8
1307724,8
130895,8
1308960,8
1309481,8
1310270,8
1310461,8
1310766,9
1312277,8
1313613,8
1314084,8
1314513,8
1314558,8
1315171,8
1317012,8
1317574,8
1317709,8
1318220,8
131876,8
1319112,9
1319602,8
1319731,8
1320383,8
1320644,8
1320651,8
132087,8
1321313,9
1321359,8
1322472,9
1322523,8
1322580,8
1323375,9
1323723,8
1323905,8
1324081,9
1324567,8
1325295,8
1325405,8
1326348,8
1326471,8
1326584,8
1326863,8
1327711,8
132781,8
1329291,8
1330734,8
1330769,8
1331654,8
133205,8
1332445,8
1332962,9
133312,8
1333518,8
1333640,9
1334236,8
1334702,8
1334972,8
13354,8
1335508,8
1336232,8
1336623,8
1336870,9
1337249,8
1337261,8
1337278,8
1337430,8
1339043,8
1339498,8
1340628,8
1341575,9
1341804,8
1342819,9
1342832,8
134366,8
1343758,8
1344899,8
134576,8
1345871,8
1346096,8
1346148,8
1346459,8
1346533,8
1346967,8
1349217,8
1349555,8
1349798,8
1349992,8
1350073,8
135051,8
1350922,8
1351556,8
1352405,8
1353005,8
1353156,8
1354188,8
1356646,8
1357174,9
1357916,8
1357973,8
1358002,8
1359382,8
1359667,8
1360141,8
1360498,8
1360635,9
1360715,8
1360921,8
1362210,8
1362332,8
1363381,8
1363415,8
1363727,8
1363807,8
1364982,8
1365332,8
1365563,8
136570,8
1366676,8
136693,8
1366970,8
1367089,8
1367258,8
1367476,8
1367778,8
1368389,8
1369183,8
1369240,8
1370805,8
1371106,8
1372177,8
1373006,8
1373261,8
1375106,8
1375289,8
137608,8
137622,8
1376643,9
1377615,8
1378617,8
1378878,8
1379128,8
1379300,8
1379445,8
1379586,8
1380475,8
1381070,8
1381453,8
1381640,8
1382417,9
1382429,8
1382854,8
1383457,8
1383548,8
138464,8
1385557,8
1385812,8
1386541,8
1388022,8
1388162,8
1388440,8
1389673,8
1390240,8
1390774,8
1390837,8
1391505,8
1391811,8
1392457,8
1393239,9
1393253,8
1393976,8
1394394,8
1394838,8
1394901,8
1394918,8
1396757,8
1397469,8
1397942,9
1399755,8
1400270,8
140029,8
1400547,8
1400744,8
1401128,8
1401329,9
1401559,8
1401601,8
1402234,8
1403341,8
140461,9
1405426,8
1406001,8
1406469,8
1406861,8
1409020,8
1409736,8
1410699,8
1411899,8
1412224,8
1412631,9
1413244,8
1413637,8
1414051,8
1414174,8
1414966,8
1415170,8
1416116,8
1416498,8
1417243,8
1418361,8
1419214,8
1419751,9
1421418,8
1423904,8
142394,8
1424087,8
1425352,8
1425469,8
1426301,8
1426952,8
1427875,8
1428652,8
1428997,8
1429549,8
1429989,8
1430803,8
1430968,8
1431963,8
1432187,8
1432249,8
1432488,8
1434060,8
143415,8
1434450,8
1435805,9
1436888,8
1437636,8
1439010,8
1439498,8
1443177,8
1444056,8
1445238,8
1446246,8
1446356,8
1446794,8
1447202,8
1447331,8
1448056,8
1448061,8
1448389,8
1448673,8
1449824,8
1450426,8
1451127,8
145135,8
1451935,8
1452405,8
1452427,8
1452626,8
1452686,8
1453012,8
1453536,8
1454086,8
1455142,8
1455313,8
1455657,8
1455873,8
1455959,8
1456293,8
1456874,8
1459134,8
1459714,8
1461139,8
1461327,8
146240,8
1463578,8
1463759,8
1464019,8
1464748,8
1465836,8
146719,9
1468447,8
1469128,8
1469401,8
1469633,9
147024,9
1470439,8
1472727,8
1474864,8
1475524,8
1476568,8
1477221,8
1477256,8
1478594,8
1479571,8
1480300,8
148043,9
1480703,8
1480813,8
1481209,8
1481697,8
1482663,8
1483004,8
1483065,8
1483318,8
14835,8
1483941,8
1484413,8
1485450,8
1485916,8
1486047,8
1487615,8
148882,8
1488905,9
1489409,8
149057,8
1490672,8
1491001,8
1491271,8
1491664,8
1492009,8
1492370,8
1492555,8
1492679,8
1494146,8
1494148,8
1494544,8
1494697,9
1495587,8
1495961,8
1495984,8
1496312,8
1496683,8
1497224,8
1497676,9
1498976,8
149913,8
1499757,8
1499959,8
1500409,8
1501359,8
1502547,8
1504044,8
1504898,8
1505024,8
1508277,8
1508923,8
1509021,8
1509307,8
1509340,8
1509635,8
1510830,8
1510967,8
1511028,8
1511397,8
1511459,8
151265,9
1512997,8
1513120,8
1513573,8
1513840,8
1514367,8
1514680,8
1515197,8
1515466,8
1516513,8
1517572,8
1517802,8
1517929,8
1518969,8
1519004,8
1520389,8
1520446,9
1520987,8
1521668,8
1522107,8
152250,8
1522908,8
152338,8
1523396,8
1523933,8
1524136,8
1524498,8
1524848,8
1525028,8
1525103,8
1525975,8
1526716,9
1527441,8
1527648,8
1527767,9
1527872,9
1528090,8
1528279,9
1528320,8
1528551,8
1528665,8
1529852,8
153027,9
1530719,8
1531161,8
1532160,8
1533011,8
1534016,8
153470,8
1535130,8
1536714,8
1537168,8
1537207,8
1537249,8
1539142,8
1540944,8
1541685,8
1542464,8
1543266,8
1543979,9
1544742,8
154530,8
154595,8
15466,8
1547150,8
1547652,8
1547860,8
1549032,8
1549048,8
1549219,8
1549361,9
1549439,8
1551364,8
1552214,9
1554434,8
1554601,8
1554678,8
1555973,8
1556727,8
1557125,8
1557603,8
1557777,8
1558970,8
1559270,8
1559953,8
1561938,8
1562105,8
1562186,9
1562191,8
1562534,8
1562625,8
156268,8
1562922,8
1563653,8
1563911,8
1563928,8
156422,8
1564521,8
1564534,8
1565051,8
1565062,8
1565339,8
1566005,8
1566170,8
1566766,8
1567047,9
1567292,8
1567378,8
156751,8
156781,8
1569963,8
1570102,8
1570579,8
1570944,8
1571183,8
15712,8
1571283,8
15715,8
1573358,8
1574042,8
1574616,8
1574806,8
1574967,8
1575381,8
1576297,8
1576452,8
157752,8
1578431,8
1578455,9
1578523,9
1579187,8
1580124,8
158275,8
1583367,8
1583686,8
1584066,8
1584300,8
1585206,8
1586794,8
1587254,9
1587850,9
1588412,8
1588767,8
1589400,9
1589559,8
1590133,8
1591741,8
1591840,8
1592997,8
1593258,8
159418,8
1594431,8
1594599,8
1594971,8
1595210,8
1595318,8
1595784,8
1596719,8
1596977,8
1597320,8
1597848,8
1598265,8
1598831,8
1599181,8
1599761,8
1600283,8
1600469,8
1603013,8
1603218,8
160360,8
1603900,8
1604354,8
1604756,8
1606070,9
1607547,8
1607917,8
1607944,8
1611141,8
1611783,8
1612579,8
1612584,8
1612730,8
1613678,8
161395,8
1613963,8
161406,8
1614473,8
1615550,8
161627,8
1616474,8
1616612,8
1617284,8
1617541,8
161781,8
1618056,8
1618488,8
1618639,8
1618745,8
1619784,8
161994,8
1620753,8
1621849,8
1622104,8
1623035,8
1623490,8
1624321,8
1625046,8
162509,8
1626169,8
1626299,8
1626629,8
1627198,8
1629394,8
162948,8
1629516,8
1629590,8
1629621,8
1630278,8
1631132,8
1631284,9
1632214,8
1632441,8
1632771,8
1632922,8
163330,8
1633457,8
1633558,8
1633599,8
1635527,8
1635641,8
1636010,8
1636144,8
1636226,8
1636270,8
1636826,8
163738,8
1638051,8
1638566,8
1639202,8
1639753,8
1640316,8
1640943,8
164193,8
1642096,8
1642537,8
1642758,8
1643467,8
1643468,8
1643625,9
1644063,8
1645904,8
164603,8
1646758,9
1647214,8
1648997,8
1649471,8
1649682,8
1650796,9
1651940,8
1652057,8
1652808,8
1652892,8
165328,8
1653780,8
1656130,8
1656601,8
1657440,8
1658699,8
1660166,8
1660198,8
1660523,8
1660730,8
1661506,8
1663413,8
1666210,8
1666428,8
1667161,8
1667325,9
1667330,8
1667873,8
166806,8
1668273,8
1668783,8
1668820,8
1668984,8
1669109,8
1670069,8
1671447,8
1671980,8
1672782,8
1673153,9
1673411,8
167470,8
1675066,8
1675069,8
1675667,8
1677351,8
1677597,8
1678060,8
1678204,8
1678214,8
1678754,8
1678785,8
1679345,8
1679381,8
1679652,8
1680353,8
168062,8
1681027,8
1682503,8
1683303,8
1683311,8
1683856,8
1684033,9
1684262,8
168448,8
1684728,8
1685011,8
1685422,9
168587,8
1685871,8
1686907,8
1687029,8
168703,8
1687109,8
1687201,8
168789,8
1687983,8
1688081,8
1688712,8
1689451,8
1689641,8
1690335,9
1690345,8
1690685,8
169093,8
1691480,8
1692925,8
1693514,8
1694681,8
1695328,8
1695419,8
1695521,8
1695941,8
1696241,8
1696282,8
1696430,8
1696753,8
169687,8
1697086,8
169797,8
1698283,8
1698488,8
1699262,8
1699336,8
1700037,8
1700834,8
1701901,8
1702399,9
170430,8
1705011,8
1706538,8
1706569,9
1706832,9
1707191,8
1707585,8
1709971,8
171002,8
1710420,8
1710455,8
171066,8
171132,8
1711423,8
1711548,9
1712731,9
1713332,8
1713404,8
1713815,8
1713869,8
1713904,8
1714092,8
171536,8
1715723,8
1718288,8
1718408,8
1718690,8
1718771,8
1719557,8
1721166,8
1723510,8
1723967,9
1724998,8
1725069,8
1725488,8
1727579,8
1727869,8
1728164,8
1728432,8
1729147,8
1729573,8
1729923,9
1730482,8
1730554,8
173102,9
1731054,8
1731552,8
1731572,8
1731611,8
1732075,8
173232,8
1732392,8
1732683,8
173339,8
1734528,8
173490,8
1735326,8
173593,8
1736353,8
1736872,8
1737013,8
173724,8
1737684,8
1738212,8
1738264,8
1738768,8
1739186,8
1739364,9
1739457,8
1739582,8
1739814,8
1739976,8
1740708,8
1740829,8
1740991,8
1741651,8
1742829,8
1743013,8
1743218,8
1743350,8
1743366,9
1743471,9
1743546,8
1744199,8
1744503,8
1745223,9
1747170,8
174727,8
174785,8
1748282,8
1749109,8
1749548,8
1749640,8
174974,8
1749818,8
1750125,8
1750619,8
1751094,8
1751308,8
1751670,8
1753118,8
1753225,8
1753286,8
1754028,8
1754702,9
1755533,8
1755554,8
1755750,8
175598,8
1756058,8
1756654,8
175741,8
1757507,8
1758493,8
1758610,9
1758901,8
1759022,8
1759070,8
1759695,8
1759759,8
1760095,8
1760129,8
1760325,8
1760383,8
1760535,8
17612,8
1762242,8
1762248,8
1763672,9
1763715,8
1763807,8
1763939,8
1764153,8
176423,8
1764441,8
1764533,8
1764936,8
1765818,8
1766671,9
1767836,8
176894,8
1769864,8
1770468,8
1770586,8
1771245,8
1772176,8
1772261,8
1772919,8
1772990,8
1773176,8
1773283,9
1775516,8
1776141,8
1778371,9
1779722,8
1781070,8
1781105,8
1781128,9
178304,8
1783991,8
1784467,8
1786015,8
1786133,8
1787551,8
1787637,8
1788018,8
1788413,8
1788664,9
1789454,8
1789535,8
1789736,8
1790293,8
1791156,8
17914,8
179142,8
1791838,8
179386,8
1794014,8
1794504,9
1794634,8
1795127,8
1795292,8
1796195,8
1796737,8
1796806,8
1797150,8
1797310,8
1798127,8
1799033,9
179988,8
1800117,8
1800174,8
1801335,8
1802750,8
180277,8
1803086,8
1803146,8
1803705,8
1804735,8
180539,8
1806328,8
180661,8
1807119,8
180789,8
1808716,8
180883,8
1809285,8
1809394,8
1809420,8
1811210,8
1812068,8
18121,8
1812418,8
1812811,8
1813262,8
1813380,8
18134,8
1813712,8
1813824,8
1813981,8
1814880,8
1815116,8
1815816,8
1816522,8
1817444,8
1817739,8
1819320,9
1819553,8
1819827,8
1819963,8
1820085,8
1820326,8
1820773,8
1821472,9
1821975,8
1822171,8
1822174,9
1822482,8
1822625,8
1823310,8
1823379,8
1823484,8
1823549,8
1825492,8
1826870,8
1827053,8
182761,8
1828090,8
1829621,8
1830372,8
1830983,8
1831051,8
1831128,8
1833168,8
1834151,8
183441,8
1834564,9
1835505,8
1836075,9
1836139,8
1836265,8
1836644,8
1836866,8
1837146,9
1837225,8
183761,8
1838047,8
1838691,8
1838792,8
183920,8
1839291,8
1840656,8
1841960,8
1843161,8
184333,8
1843348,8
1843798,9
1844006,8
184573,8
1846010,8
1846142,8
1846280,8
1846978,8
1847046,8
1848525,8
1848529,8
1848663,8
184869,8
1849090,8
1849623,8
1849728,8
1850479,8
1852033,9
1852766,8
1853425,8
1854510,8
185523,8
1855484,8
1856019,8
1856188,8
1857726,9
1858381,8
1859190,8
1860181,9
1860592,8
1860913,8
186115,8
1861552,8
1861684,8
1862124,8
1862455,9
1862567,8
1862586,9
1862792,8
1863437,8
186358,8
1863696,8
1865282,8
1865549,8
1865730,8
1866264,8
186682,9
1867239,8
186726,8
1869005,9
1870869,8
187130,8
1871332,8
1871817,8
1871836,8
1871927,8
1872990,8
1873033,8
1873306,8
1873375,8
1873443,8
1873607,8
1874212,8
18745,8
1874534,8
1874792,8
1875369,8
1875935,8
1877708,8
1878167,8
1878482,8
1878687,9
1879195,8
1880065,8
1880304,8
1880974,9
1881823,8
1882540,8
1882651,8
1882987,8
1883384,8
1883690,8
1885661,8
1885677,8
1885933,8
1886565,8
1887790,8
1887849,8
1888873,8
1889086,8
1889737,8
1892706,8
1894702,8
189481,8
189670,8
1897606,8
1897980,8
1898006,8
1898284,8
1898399,8
1899005,8
1899383,8
1899557,8
1901189,8
1901230,9
1901680,9
1901765,8
1902375,8
1903719,8
1903877,8
1903939,8
1904031,8
1905354,9
1905468,8
1906057,8
1906065,8
1906384,8
1906453,8
1906760,8
1906865,8
1908375,8
1908621,8
1908746,8
1908858,8
1909047,8
190992,9
1910777,8
1911267,8
1912012,8
1912164,8
1912459,8
1914254,8
1914739,9
1915520,8
19162,8
1916572,8
191677,8
1917119,8
1917639,8
1919714,9
1920255,8
1921770,8
1922244,8
1922302,8
1922847,8
1923055,8
1923192,8
1924604,8
1925213,8
1926243,8
1928375,8
1930644,8
1931368,8
1931591,8
1931664,8
1932219,8
1932220,9
1932290,8
1932614,8
1932928,8
1933119,8
1934078,8
1934504,8
193473,8
1935406,8
1935883,9
193621,8
193629,8
1936551,8
1936703,8
1936854,8
193689,8
1937657,8
1938066,8
1938259,8
1939208,8
1939292,8
1939735,8
1940081,8
1940907,8
1941455,8
1941845,8
1941990,8
1942120,8
1942625,8
1943228,8
1943316,8
1943386,8
1944302,8
1944495,8
1945467,8
1945506,8
1945731,9
1946142,8
1946314,8
1946546,8
1946929,8
1947176,8
1947415,8
1947812,8
1947928,8
1948150,8
1949435,8
1950138,8
1950381,8
195058,8
19509,8
1952341,8
195248,8
1953117,8
1953744,8
1953824,8
1954532,8
1954538,8
1955205,9
1958194,8
1959069,8
1959217,8
1959437,8
1960107,8
1960538,8
1961439,8
196239,8
1965146,8
1965716,8
1966429,8
1966755,8
1966966,8
1967769,8
1968164,8
1969647,8
1970184,8
1970360,8
1970559,9
1971223,8
197158,8
1971852,8
1973863,8
1975667,8
1975742,8
1976367,8
1976906,8
1977746,8
197786,8
197811,8
1979024,8
1980139,8
1980233,8
1980626,8
198118,8
1981182,8
1981451,8
1981617,8
1982133,8
1983765,9
1983777,8
1984246,8
19843,8
1984949,8
1986003,8
1987241,8
1987765,8
1988049,8
1988493,8
1988755,8
1990563,8
1990578,8
199078,8
1991023,8
1991168,8
1991592,8
1991646,8
1991853,8
1993152,8
1993180,8
1993568,8
1994315,8
1994470,8
1994529,8
1995589,8
1996962,8
1997013,9
1997596,8
1997632,8
1998032,8
1998550,8
1998752,8
1999088,8
1999729,8
1999943,8
2000496,8
2000800,8
2000894,8
2001739,8
200249,9
2004343,8
2004816,9
2005732,8
2005820,8
2006561,8
2006807,8
2007070,8
2007219,8
2007242,8
2007515,8
2007598,8
200828,8
2008596,8
2009087,8
2010176,8
2010383,8
2010544,8
2010738,8
2011396,8
2012017,8
2012559,8
2013273,8
2014530,8
2015129,8
2015695,8
2015749,8
2016064,8
2016911,9
2017474,8
2017643,8
2018684,8
2018848,9
2019077,8
2019257,9
2019668,8
2020630,8
2022703,8
2023392,8
2024863,8
2025045,8
2025656,8
2026345,8
2026615,8
2027844,8
2028099,8
2028347,8
203167,8
2031799,8
203184,8
2032130,8
2032678,8
2034208,8
203445,9
2035400,8
2035914,8
2036467,8
2036617,8
2037299,8
2037429,8
2038469,8
2038662,8
2038667,8
2039166,8
20403,8
204057,8
2040759,8
204101,8
2041384,8
2042186,8
2042333,8
2042540,8
2042862,8
2043478,9
2044615,8
2044683,8
20448,8
2044881,8
2045913,8
2046019,8
2046348,8
2046978,8
2047018,8
2047233,8
2047880,8
2048678,8
2049559,8
2049819,8
2049974,8
2050303,8
2050707,8
2051549,8
2052043,8
205315,8
2054562,8
2055411,8
2056082,8
2056236,8
2056864,8
205691,8
2057127,8
2057133,8
2057936,8
2059479,8
2059961,8
206009,9
2060106,8
2060504,8
2060916,8
2061796,8
2061906,8
2062993,8
2064523,8
2065333,8
2065364,8
2066168,8
206661,9
206687,8
2066972,8
2067907,8
2068147,8
2068577,8
2069587,9
20700,8
207136,8
2072090,8
207300,9
2073899,8
2074966,8
207530,8
2075504,8
2075534,8
2076701,8
2077170,8
2078034,8
2079003,8
2079527,8
2080257,8
2080368,8
2080929,8
2081131,8
2081231,8
2081355,8
2081562,8
2082142,8
2082974,8
2083172,8
2083613,8
208364,8
2085080,9
2085655,8
2087525,8
2087553,8
2088133,9
2089499,8
2089746,8
2090691,8
2090883,8
2091426,8
2091832,8
2093891,8
2094112,8
2094648,8
2095284,8
2095583,8
2096121,8
20967,8
209832,9
20986,8
210814,8
211020,8
211284,9
211950,8
212191,8
213290,8
214139,8
215565,8
215593,9
215916,8
216057,9
216278,8
21665,8
216900,8
217095,8
217150,8
217385,8
217614,9
217701,8
218084,8
218279,9
220550,8
220592,8
221400,8
223567,9
223773,8
224128,8
224606,9
224982,8
225622,8
226280,8
227048,8
227163,8
227192,8
227533,8
229683,8
229913,8
229952,8
230498,8
231065,8
231401,9
231643,8
231868,8
232274,8
232490,8
232689,8
233486,8
233616,8
234387,8
235093,8
236573,8
236660,9
238279,9
238547,8
239133,8
239338,8
239673,8
240120,8
240423,8
241275,9
24136,9
241855,8
241972,8
242021,8
242353,8
242900,8
245129,8
245969,8
246199,8
246860,8
247384,8
248036,8
248169,8
248178,8
248937,8
250943,8
252796,8
253140,8
254029,8
254180,8
254809,9
255331,8
255455,8
255983,8
256620,8
25747,8
257896,8
25792,8
25802,9
258314,8
258503,8
258535,9
258636,8
25883,8
258967,8
259974,8
261021,8
263393,8
263633,8
264185,8
265272,8
265730,8
265933,8
266280,8
266349,8
266580,8
267034,8
2672,8
268563,8
26866,8
268856,8
268968,8
269197,8
269657,8
270344,8
270842,8
271049,8
271995,8
272033,9
272299,8
272624,8
27343,8
273492,8
273602,8
273748,8
274045,8
274315,8
275317,8
275872,8
277274,8
27774,8
277883,8
278036,8
279576,8
280439,8
280592,9
281931,8
283252,8
284296,8
285368,8
286210,8
286746,8
287114,8
287675,8
287831,8
288050,8
288909,8
288988,8
289181,8
290404,8
290711,8
291511,8
291624,8
291785,8
292049,8
292339,8
293920,8
294028,8
295428,8
295558,8
295863,8
297330,8
297336,9
297403,8
297404,8
297504,8
298495,8
298620,8
299728,8
300315,9
302331,8
302771,8
302897,8
303603,8
304161,8
304586,8
305083,8
305841,8
306076,8
306905,8
308458,8
309261,8
310080,8
312564,8
312794,8
313274,8
313742,8
313835,8
314102,9
314497,8
315002,8
316323,8
317411,8
317580,8
318567,8
31954,8
319867,8
321318,8
324556,8
325528,8
326279,8
326438,8
32672,9
327024,8
328117,8
328274,8
328350,8
328657,8
329408,8
32993,8
330132,9
330141,8
330183,9
331284,8
331408,8
332069,8
333252,8
33417,8
33434,8
336328,8
33707,8
338530,8
340699,8
340936,8
341718,8
342516,8
345382,8
345421,8
345618,8
345707,9
346310,8
347770,8
349317,8
349848,8
350693,8
350758,8
352086,8
352434,8
352736,8
353069,8
353418,8
354488,8
355366,8
355680,8
35589,9
356121,8
356540,8
356972,8
357179,8
357245,8
359044,9
359592,8
361406,9
36450,8
36486,8
365191,8
365286,8
365343,8
365667,8
366288,8
367517,8
36752,8
370075,8
370579,8
370786,8
371361,8
372230,8
372482,8
37330,8
374355,8
374745,8
374824,8
375714,8
376187,8
37693,8
376940,8
378101,8
379254,8
380279,8
380345,9
380915,8
381150,8
382206,8
382365,8
383251,8
383458,8
38398,8
384298,8
38492,8
385687,8
38622,8
386585,8
386611,8
386790,8
386827,8
388680,8
389500,9
389918,8
390887,8
390983,8
391338,8
392869,8
393107,8
393283,8
393354,9
394459,8
395305,8
395694,9
395782,8
396030,8
396049,8
396118,9
398292,8
398396,8
398487,8
398504,8
398618,8
399477,8
399720,8
400555,8
400873,8
401428,9
404087,9
404212,8
404746,9
405279,8
40570,8
405703,8
405929,8
40608,9
40624,8
407458,8
408012,8
408230,8
40881,8
409939,8
410025,8
410149,8
410496,8
411180,8
412282,8
412610,8
41289,8
413328,8
414676,8
414954,8
415384,8
415477,8
415491,8
415669,8
416135,8
418150,8
41879,8
419318,8
419467,8
419953,8
420195,8
420345,8
420615,9
422300,8
422666,8
423283,8
423379,8
423456,8
423861,8
424481,8
426427,9
427493,8
427660,8
428815,8
430753,8
431280,8
431836,8
432283,8
433010,8
4343,8
434962,8
43513,8
435344,8
436419,8
437077,8
437544,8
437652,8
43833,8
438500,8
439105,8
439584,8
439678,8
439907,8
440242,8
440632,8
441240,9
442534,8
442891,9
442925,8
443085,8
443367,8
443711,8
444008,8
44403,8
444297,8
444532,8
444736,8
444761,8
444898,8
445535,8
445806,8
446167,8
448873,8
449158,8
449821,8
450819,8
45138,8
452016,8
452524,8
452530,8
453840,9
454462,8
454701,9
455154,8
455752,8
457620,8
45840,8
459445,8
459917,8
460630,8
461118,8
461178,8
462140,8
462663,8
462736,8
46326,8
46423,8
464613,8
464830,8
467299,8
468242,8
468827,8
469296,8
469357,8
470762,8
470906,8
47101,8
471413,8
471557,8
473066,8
47327,8
473425,8
473436,8
474236,8
474586,8
475447,8
476444,8
476649,9
476784,8
476970,8
477168,8
477978,8
479433,8
480467,8
480696,8
480776,8
4828,8
483106,8
483809,8
483812,8
483896,8
484248,8
484335,8
485035,8
485743,8
48628,8
486500,8
48730,8
487752,8
4908,8
49111,9
491409,8
491520,8
492765,8
492974,8
493005,9
49375,8
494252,9
494254,8
494296,8
496101,8
496306,8
496557,9
496679,8
498009,8
499275,8
499367,8
499953,8
500215,8
500451,8
50181,8
50359,8
503822,8
503970,8
504300,8
504304,8
504450,8
504575,8
505182,8
505852,8
506611,8
506678,8
506703,9
507501,9
508018,8
509358,8
509441,8
510274,8
510394,8
511389,8
511781,8
513541,8
515271,8
515472,8
516163,8
516262,8
518180,8
518531,8
51893,8
519503,8
520054,8
520109,8
521065,9
521397,8
521692,8
521750,8
522186,8
522711,8
523606,8
523661,8
523977,8
524677,9
525323,8
525464,9
525690,8
525850,8
525932,8
52671,8
527693,8
528530,8
530908,8
531042,9
531144,8
531338,8
531348,8
532424,8
532442,8
533015,8
534277,9
535019,9
535082,8
535529,8
535691,8
536034,8
536972,8
537824,8
538702,9
538711,8
538957,9
53898,8
539156,8
539385,8
539386,8
539617,8
539865,8
539907,8
540914,8
543168,8
544439,8
544838,9
544881,8
545873,8
546233,8
546321,8
546825,8
547435,8
549003,8
549068,8
549727,8
551078,8
551928,8
552471,8
55307,8
553559,9
554218,9
555649,8
557026,8
557544,8
557591,8
557608,8
557816,8
557868,8
558149,8
558196,8
559950,8
560114,8
560932,9
560979,8
561890,8
562597,8
563629,8
564293,8
56467,8
564792,8
564947,8
565351,8
565653,8
566662,8
566677,8
567024,9
567828,8
567841,8
569502,8
569764,8
570267,8
570711,9
571405,8
571588,8
571672,9
571810,8
572089,9
572263,9
573455,8
57379,9
574013,8
574150,8
574210,8
575073,8
575483,8
575701,8
575771,8
577008,9
577528,8
577571,8
578583,8
579220,8
579661,8
579897,8
580064,8
58017,8
580336,8
580461,8
580486,8
580635,8
580785,8
581794,8
583339,8
584668,8
585760,8
586185,8
587043,8
587055,8
587206,8
589598,8
590105,8
590658,8
590704,8
590785,8
590879,8
590966,8
591107,8
591820,8
592391,8
592583,9
593157,8
593615,9
593798,9
594316,8
595511,8
595748,8
596157,8
596234,8
596587,8
596812,8
597706,8
598158,8
598194,8
598893,8
599345,9
600044,8
601331,8
602428,8
603629,8
605020,8
606198,8
60633,8
607854,8
608482,8
609256,8
609983,8
610043,8
610522,8
6110,8
612084,8
612108,8
612957,8
613142,9
614267,9
614566,8
614907,8
615627,8
616205,8
617164,8
617800,8
618278,8
618526,8
618704,8
618897,8
619064,8
619203,8
619428,8
62001,8
620186,8
620478,8
620880,8
622205,8
624372,8
624964,8
626101,8
626177,8
62641,8
626699,8
627051,8
628598,8
628747,8
629048,8
629339,8
629470,8
629585,8
630256,8
630587,8
634474,8
634799,8
635075,8
635721,8
635878,8
636911,8
63694,8
637018,8
637544,8
637839,8
638668,8
638913,8
638964,8
639021,8
639466,8
639721,8
639730,8
640904,8
642982,8
64304,8
643447,8
643918,8
644063,8
644244,8
644431,8
644885,8
645268,9
645418,8
646215,8
64694,8
646993,8
647535,8
647574,8
647751,8
649692,8
649981,8
650064,8
65109,8
651614,8
651835,8
651950,8
652484,8
65293,8
6534,8
653975,8
656123,8
656653,8
657135,8
657215,8
658416,9
659085,8
659383,8
660200,8
66039,8
661319,8
661923,8
661980,8
662057,8
662174,8
664178,9
664389,8
665529,8
666534,8
667078,9
667374,8
667855,8
667857,8
667963,8
668211,8
668484,8
668662,8
669018,8
669571,8
669970,8
670093,8
670542,8
67063,8
67102,8
67142,8
671567,8
671599,8
672552,8
673451,8
673502,8
674611,8
674787,8
674952,8
675561,8
675612,8
675710,8
677582,8
677589,8
677612,8
678642,8
679297,8
680685,8
682629,9
682679,8
683323,8
683940,8
684239,8
685539,8
686158,8
686348,9
686826,8
687631,8
687781,8
688673,8
689330,8
690293,8
690597,8
690602,8
691191,8
692081,8
692659,8
692898,8
69324,8
69340,8
69348,8
6936,8
694491,8
695020,8
69530,8
697057,8
697469,8
697497,8
697944,8
698208,8
699254,8
699326,8
699874,8
70028,8
700779,8
702236,8
702567,8
703296,8
703402,8
703792,8
704004,8
70408,8
704292,8
704362,8
704378,9
705064,8
705492,8
705542,8
705880,8
706731,8
707627,9
708080,8
709279,8
709754,8
710220,8
710414,8
711179,8
711301,8
712357,8
712463,8
713254,8
714076,8
714084,8
714238,8
714380,8
71472,8
715332,8
715390,8
716681,8
71731,8
717503,8
718869,8
720589,9
72120,8
721255,8
723424,8
723831,8
72385,8
723987,8
724433,8
724670,8
725019,8
725044,8
725559,8
726121,8
726657,8
726680,8
727998,8
728622,8
729698,8
730430,8
73058,8
730966,8
730971,9
731228,9
731282,8
731443,8
731580,9
73216,8
73245,8
733140,8
733475,8
73365,8
7339,8
733929,8
73415,8
73436,8
734861,8
735230,8
735424,8
735477,8
736263,8
736288,9
736972,8
737536,8
737575,8
737782,8
738239,8
738277,8
73832,8
739695,8
739949,8
740139,8
740577,8
741411,8
741636,8
742153,8
742301,8
742371,8
742578,8
742713,9
743963,8
744541,8
744631,8
744700,8
744879,8
745324,8
745640,8
746010,8
74613,8
74616,8
748592,8
749491,8
749964,8
750143,9
750163,8
750540,8
750980,8
751342,8
752231,8
752256,8
753509,8
753790,8
754085,8
755509,9
755524,8
755534,8
755822,8
756638,8
757027,8
757419,8
757845,8
758067,9
75849,8
759256,8
760596,8
762079,8
762485,8
764255,9
765755,8
766183,8
766218,8
766395,8
766528,8
766649,8
76731,8
767374,8
768975,9
769381,8
770252,8
770923,8
77124,8
772368,8
773058,8
773466,8
774775,8
774798,8
774876,8
775388,8
775678,8
776705,8
77687,9
777006,8
777171,8
778784,8
778821,8
77892,9
779535,8
77985,9
779905,8
781274,8
783306,8
784784,8
78603,8
786425,8
787081,8
787796,8
788040,8
788576,8
78960,8
790661,8
793595,8
793703,8
794083,8
794748,8
795257,8
795501,8
795970,8
797317,8
797787,8
797872,8
798854,8
798869,8
799282,8
799354,8
800081,8
80019,8
800878,8
801106,8
801862,8
802526,9
80317,8
804851,9
805058,8
805298,8
805435,8
806422,8
808070,8
809595,8
809736,8
810123,8
810212,8
810392,8
810496,8
810677,8
810735,8
810887,8
811009,8
811356,8
811548,8
811616,8
8129,8
81292,8
813540,8
813636,8
813641,8
813863,8
815693,8
816686,8
81689,8
816938,8
818140,8
818164,8
818521,8
819126,8
820425,8
821075,8
821251,8
821572,9
821721,8
821837,8
822115,8
822246,9
822469,8
822936,8
823913,8
824453,8
824998,8
825258,8
825466,8
825652,8
827020,8
827389,8
829110,9
829257,8
829460,8
830648,9
832662,8
832725,8
833129,8
83376,8
835106,8
835640,8
835642,8
835984,8
836515,8
837420,8
837587,8
837989,8
838917,8
839308,8
83986,8
840221,8
841015,8
841314,8
841387,8
841552,8
842645,8
84322,8
843401,8
844319,8
84438,8
845135,8
845597,8
846519,9
846631,8
848800,8
848858,8
848941,9
849521,8
849738,8
850324,8
851838,8
854137,8
854271,8
854341,8
855567,8
855712,8
855830,8
856067,8
856425,8
856573,8
856590,8
857166,8
857192,8
85750,8
859038,8
859113,8
861665,8
861673,8
861939,8
862889,8
863916,8
863925,8
864018,8
864019,8
864973,8
865019,8
865037,8
865155,8
865729,8
866007,8
86614,8
866601,8
8672,8
867286,9
867873,8
868222,8
868659,9
869478,8
870188,8
870289,8
870379,8
87053,8
871111,8
871333,8
871672,8
872243,8
872429,8
87264,8
872825,8
873143,8
873560,8
873971,8
874070,8
874887,8
875548,8
875692,8
875863,8
877394,8
878407,8
878878,8
879255,8
879813,8
880093,8
880166,8
880619,8
880807,8
881043,8
883302,9
883344,8
88388,8
884260,8
884921,8
884977,8
885299,8
885675,8
886397,8
886431,8
886626,8
887524,8
887960,8
887962,8
888093,8
888391,8
889064,8
889291,8
891094,8
891183,8
891456,9
891848,8
892547,8
892578,8
892885,8
892965,8
893229,8
894528,8
89618,8
896242,8
896394,8
896487,8
896648,8
897257,8
897556,8
898955,8
900022,8
900405,8
901297,8
901652,8
90317,8
903769,8
904030,9
909776,8
910050,8
910527,8
910939,8
91182,8
912895,9
914446,8
914933,8
916428,8
916602,8
917809,8
918404,8
918616,8
918738,8
919861,8
919935,8
919985,8
920852,8
921294,8
921389,8
922325,8
922651,8
923097,9
923529,8
92371,8
923760,8
923924,8
924388,8
925094,8
925233,8
926364,8
927280,8
92759,8
928330,8
929532,8
930115,8
930161,8
931049,8
931476,8
931519,8
931698,8
932874,8
933372,8
934074,8
934929,8
935776,8
935954,8
936244,8
937230,8
938179,8
938197,8
938463,8
938574,8
939665,8
939891,8
94067,8
941,8
941089,8
941146,8
941235,8
94185,8
941906,8
942451,8
942816,8
942846,8
943291,8
943737,8
943772,8
944133,8
945959,8
946134,8
947258,8
947320,8
947419,9
947796,8
94906,8
949503,8
949863,8
950113,8
950135,8
950716,8
95161,8
95206,8
952202,8
952821,8
953272,8
953336,8
95353,8
954782,8
956179,8
956339,8
957036,8
958301,8
958886,8
959272,8
959295,8
959427,8
959623,8
960214,8
961303,8
961328,8
96152,8
96203,8
962522,8
963148,8
963275,8
963448,8
96504,8
965076,8
965842,8
966656,8
96702,8
968967,8
969256,8
969451,8
969466,9
969502,8
969531,8
96972,8
969955,8
970012,8
970160,8
970490,8
970547,8
97241,9
973062,8
973383,8
973520,8
973665,8
974088,8
974159,8
97456,8
974601,8
974810,8
975680,8
976932,8
977105,8
977669,9
977857,8
979599,8
979804,8
983590,8
983693,8
98371,9
984398,8
984542,8
985107,8
985277,8
985980,8
986021,9
986349,8
986641,8
988776,8
989161,8
990529,9
990811,8
991160,8
99118,8
992045,8
992174,8
992263,8
992334,8
992688,8
992800,8
993195,8
993663,8
993678,8
994097,9
995301,8
99609,8
996258,8
996268,9
996760,9
997011,8
99755,8
998036,8
998192,8
998420,8
998481,8
998575,8
999011,8
999107,8
