34,68,21,Paleocarrie Carousel,Rides for Everyone
69,44,81,Flight of the Swingdon,Thrill Rides
27,15,2,Galactosaurus Rage,Thrill Rides
79,89,15,Enchanted Toadstools,Kiddie Rides
78,37,30,Ichthyoroberts Rapids,Rides for Everyone
17,67,22,Jurassic Road,Rides for Everyone
32,33,32,Creighton Pavilion,Shows & Entertainment
16,66,5,Wendisaurus Chase,Thrill Rides
28,66,26,Kristanodon Kaper,Rides for Everyone
87,81,19,Stone Cups,Kiddie Rides
86,44,6,Keimosaurus Big Spin,Thrill Rides
16,49,23,Rhynasaurus Rampage,Rides for Everyone
23,54,28,Eberlesaurus Roundup,Rides for Everyone
38,90,3,Auvilotops Express,Thrill Rides
87,48,29,Dykesadactyl Thrill,Rides for Everyone
60,37,900,Park 1,Park
85,86,18,Wild Jungle Cruise,Kiddie Rides
42,37,901,Park 2,Park
83,88,17,Blue Iguanadon,Kiddie Rides
78,48,4,TerrorSaur,Thrill Rides
17,43,7,Firefall,Thrill Rides
50,57,62,Liggement Fix-Me-Up,Information & Assistance
45,24,8,Atmosfear,Thrill Rides
47,11,1,Wrightiraptor Mountain,Thrill Rides
67,37,902,Park 3,Park
26,59,25,Maiasaur Madness,Rides for Everyone
76,22,63,Grinosaurus Stage,Shows & Entertainment
87,63,64,SabreTooth Theatre,Shows & Entertainment
43,78,31,Raptor Race,Rides for Everyone
82,80,16,Stegocycles,Kiddie Rides
48,87,27,Squidosaur,Rides for Everyone
43,56,24,Kauf's Lost Canyon Escape,Rides for Everyone
81,77,10,Jeredactyl Jump,Kiddie Rides
6,43,20,Scholtz Express,Rides for Everyone
76,88,14,Beelzebufo,Kiddie Rides
92,81,9,North Line,Kiddie Rides
79,87,13,Cyndisaurus Asteroid,Kiddie Rides
73,79,11,Sauroma Bumpers,Kiddie Rides
73,84,12,Flying TyrAndrienkos,Kiddie Rides
63,99,-1,Entrance 1,Entrance
0,67,-2,Entrance 2,Entrance
99,77,-3,Entrance 3,Entrance
